lab8/test_run_dir/SevenSegTest_should_pass/CountSevenSeg.vcd
$date
2022-10-31T07:08+0000
$end
$version
0.2
$end
$comment

$end
$timescale 1ns  $end
$scope module CountSevenSeg $end
 $var wire 2 " cntReg $end
 $var wire 1 % clock $end
 $var wire 1 & sevenseg $end
 $var wire 4 ' io_an $end
 $var wire 4 ( segin $end
 $var wire 1 ) reset $end
 $var wire 7 * io_seg $end
  $scope module sevenseg $end
   $var wire 4 ! io_in $end
   $var wire 7 # io_out $end
   $var wire 7 $ sevSeg $end
  $upscope $end
$upscope $end
$enddefinitions $end
$dumpvars
0%
b0000000 *
b0000 '
0)
0&
b0000 (
b0000000 #
b0000 !
b0000000 $
b00 "
$end
#0
b0111111 #
b0111111 *
b1110 '
b0111111 $
1)
#1
1%
b10 "
#6
0%
0)
#11
1%
b01 "
#16
0%
#21
1%
b00 "
#26
0%
#31
b0001 !
1%
b10 "
b0000110 #
b0000110 *
b0000110 $
b0001 (
#36
0%
#41
1%
b01 "
#46
0%
#51
1%
b00 "
#56
0%
#61
b0010 !
1%
b10 "
b1011011 #
b1011011 *
b1011011 $
b0010 (
#66
0%
#71
1%
b01 "
#76
0%
#81
1%
b00 "
#86
0%
#91
b0011 !
1%
b10 "
b1001111 #
b1001111 *
b1001111 $
b0011 (
#96
0%
#101
1%
b01 "
#106
0%
#111
1%
b00 "
#116
0%
#121
b0100 !
1%
b10 "
b1100110 #
b1100110 *
b1100110 $
b0100 (
#126
0%
#131
1%
b01 "
#136
0%
#141
1%
b00 "
#146
0%
#151
b0101 !
1%
b10 "
b1101101 #
b1101101 *
b1101101 $
b0101 (
#156
0%
#161
1%
b01 "
#166
0%
#171
1%
b00 "
#176
0%
#181
b0110 !
1%
b10 "
b1111101 #
b1111101 *
b1111101 $
b0110 (
#186
0%
#191
1%
b01 "
#196
0%
#201
1%
b00 "
#206
0%
#211
b0111 !
1%
b10 "
b0000111 #
b0000111 *
b0000111 $
b0111 (
#216
0%
#221
1%
b01 "
#226
0%
#231
1%
b00 "
#236
0%
#241
b1000 !
1%
b10 "
b1111111 #
b1111111 *
b1111111 $
b1000 (
#246
0%
#251
1%
b01 "
#256
0%
#261
1%
b00 "
#266
0%
#271
b1001 !
1%
b10 "
b1101111 #
b1101111 *
b1101111 $
b1001 (
#276
0%
#281
1%
b01 "
#286
0%
#291
1%
b00 "
#296
0%
#301
b1010 !
1%
b10 "
b1110111 #
b1110111 *
b1110111 $
b1010 (
#306
0%
#311
1%
b01 "
#316
0%
#321
1%
b00 "
#326
0%
#331
b1011 !
1%
b10 "
b1111100 #
b1111100 *
b1111100 $
b1011 (
#336
0%
#341
1%
b01 "
#346
0%
#351
1%
b00 "
#356
0%
#361
b1100 !
1%
b10 "
b0111001 #
b0111001 *
b0111001 $
b1100 (
#366
0%
#371
1%
b01 "
#376
0%
#381
1%
b00 "
#386
0%
#391
b1101 !
1%
b10 "
b1011110 #
b1011110 *
b1011110 $
b1101 (
#396
0%
#401
1%
b01 "
#406
0%
#411
1%
b00 "
#416
0%
#421
b1110 !
1%
b10 "
b1111001 #
b1111001 *
b1111001 $
b1110 (
#426
0%
#431
1%
b01 "
#436
0%
#441
1%
b00 "
#446
0%
#451
b1111 !
1%
b10 "
b1110001 #
b1110001 *
b1110001 $
b1111 (
#456
0%
#461
1%
b01 "
#466
0%
#471
1%
b00 "
#476
0%
#481
b0000 !
1%
b10 "
b0111111 #
b0111111 *
b0111111 $
b0000 (
#486
0%
#491
1%
b01 "
#496
0%
#501
1%
b00 "
#506
0%
#511
b0001 !
1%
b10 "
b0000110 #
b0000110 *
b0000110 $
b0001 (
#516
0%
#521
1%
b01 "
#526
0%
#531
1%
b00 "
#536
0%
#541
b0010 !
1%
b10 "
b1011011 #
b1011011 *
b1011011 $
b0010 (
#546
0%
#551
1%
b01 "
#556
0%
#561
1%
b00 "
#566
0%
#571
b0011 !
1%
b10 "
b1001111 #
b1001111 *
b1001111 $
b0011 (
#576
0%
#581
1%
b01 "
#586
0%
#591
1%
b00 "
#596
0%
#601
b0100 !
1%
b10 "
b1100110 #
b1100110 *
b1100110 $
b0100 (
#606
0%
#611
1%
b01 "
#616
0%
#621
1%
b00 "
#626
0%
#631
b0101 !
1%
b10 "
b1101101 #
b1101101 *
b1101101 $
b0101 (
#636
0%
#641
1%
b01 "
#646
0%
#651
1%
b00 "
#656
0%
#661
b0110 !
1%
b10 "
b1111101 #
b1111101 *
b1111101 $
b0110 (
#666
0%
#671
1%
b01 "
#676
0%
#681
1%
b00 "
#686
0%
#691
b0111 !
1%
b10 "
b0000111 #
b0000111 *
b0000111 $
b0111 (
#696
0%
#701
1%
b01 "
#706
0%
#711
1%
b00 "
#716
0%
#721
b1000 !
1%
b10 "
b1111111 #
b1111111 *
b1111111 $
b1000 (
#726
0%
#731
1%
b01 "
#736
0%
#741
1%
b00 "
#746
0%
#751
b1001 !
1%
b10 "
b1101111 #
b1101111 *
b1101111 $
b1001 (
#756
0%
#761
1%
b01 "
#766
0%
#771
1%
b00 "
#776
0%
#781
b1010 !
1%
b10 "
b1110111 #
b1110111 *
b1110111 $
b1010 (
#786
0%
#791
1%
b01 "
#796
0%
#801
1%
b00 "
#806
0%
#811
b1011 !
1%
b10 "
b1111100 #
b1111100 *
b1111100 $
b1011 (
#816
0%
#821
1%
b01 "
#826
0%
#831
1%
b00 "
#836
0%
#841
b1100 !
1%
b10 "
b0111001 #
b0111001 *
b0111001 $
b1100 (
#846
0%
#851
1%
b01 "
#856
0%
#861
1%
b00 "
#866
0%
#871
b1101 !
1%
b10 "
b1011110 #
b1011110 *
b1011110 $
b1101 (
#876
0%
#881
1%
b01 "
#886
0%
#891
1%
b00 "
#896
0%
#901
b1110 !
1%
b10 "
b1111001 #
b1111001 *
b1111001 $
b1110 (
#906
0%
#911
1%
b01 "
#916
0%
#921
1%
b00 "
#926
0%
#931
b1111 !
1%
b10 "
b1110001 #
b1110001 *
b1110001 $
b1111 (
#936
0%
#941
1%
b01 "
#946
0%
#951
1%
b00 "
#956
0%
#961
b0000 !
1%
b10 "
b0111111 #
b0111111 *
b0111111 $
b0000 (
#966
0%
#971
1%
b01 "
#976
0%
#981
1%
b00 "
#986
0%
#991
b0001 !
1%
b10 "
b0000110 #
b0000110 *
b0000110 $
b0001 (
#996
0%
#1001
1%
b01 "
